{
  "sections": {
    "1637620641e2024682": {
      "type": "banner-with-breadcrumb",
      "settings": {
        "bgcolor": "#e4ecdd",
        "title": "Learn",
        "page_name": "Articles, Recipes, and Guides"
      }
    },
    "1636694148aa3c59ca": {
      "type": "image-with-text-2",
      "disabled": true,
      "settings": {
        "container": "w-full",
        "hero_size": "small",
        "show_overlay": false,
        "bg_color": "#e0e6da",
        "bg_position": "center",
        "image_link": "",
        "parallax": false,
        "content_in_container": false,
        "content_position": "left middle",
        "text_alignment": "left",
        "text_size": "medium",
        "text_color": "dark",
        "title": "Image with text overlay",
        "subtitle": "",
        "text": "<p>Vivamus suscipit tortor eget felis porttitor volutpat. Vivamus suscipit tortor eget felis porttitor volutpat. Donec sollicitudin molestie malesuada. Nulla quis lorem ut libero malesuada feugiat.<\/p>",
        "button_label": "",
        "button_link": "",
        "button_style": "sf__btn-primary",
        "button_size": "",
        "custom_class": ""
      }
    },
    "main": {
      "type": "blog-template-new",
      "blocks": {
        "1b2e2a5b-a0da-438c-b954-45804e4149ab": {
          "type": "blog",
          "settings": {
            "blog_title": "",
            "blog": "news"
          }
        },
        "bd4f9cac-fc8d-4bc9-96fe-81194339972a": {
          "type": "blog",
          "settings": {
            "blog_title": "",
            "blog": "blogs"
          }
        },
        "5cbfc73c-2ee6-43c5-aa58-f6a394c765bc": {
          "type": "blog",
          "settings": {
            "blog_title": "",
            "blog": "recipes"
          }
        },
        "fb569843-ab9c-46ba-9d1e-517932caa9a3": {
          "type": "blog",
          "settings": {
            "blog_title": "",
            "blog": ""
          }
        }
      },
      "block_order": [
        "1b2e2a5b-a0da-438c-b954-45804e4149ab",
        "bd4f9cac-fc8d-4bc9-96fe-81194339972a",
        "5cbfc73c-2ee6-43c5-aa58-f6a394c765bc",
        "fb569843-ab9c-46ba-9d1e-517932caa9a3"
      ],
      "settings": {}
    }
  },
  "order": [
    "1637620641e2024682",
    "1636694148aa3c59ca",
    "main"
  ]
}