{
  "sections": {
    "main": {
      "type": "page-contact",
      "settings": {
        "container": "container"
      }
    },
    "maps": {
      "type": "maps",
      "disabled": true,
      "settings": {
        "container": "container",
        "map_height": "large",
        "textx": "40.6700",
        "texty": "-73.9400",
        "zoom": "11",
        "text2": "New York"
      }
    },
    "contact-form": {
      "type": "contact-form",
      "blocks": {
        "text-block-1": {
          "type": "textblock",
          "settings": {
            "title": "Where we are?",
            "content": "<p>California, USA<\/p><p>Vézénobres, France<\/p>"
          }
        },
        "text-block-2": {
          "type": "textblock",
          "settings": {
            "title": "Email Us",
            "content": "<p>contact@lavieessential.com<\/p>"
          }
        },
        "text-block-4": {
          "type": "textblock",
          "disabled": true,
          "settings": {
            "title": "Chat With Us",
            "content": "<p>+ 33 06 32 61 38 38<\/p><p>Mon - Fri, 9am - 3pm<\/p><p><\/p>"
          }
        },
        "text-block-3": {
          "type": "socialmedia",
          "settings": {
            "title": "Social Media"
          }
        }
      },
      "block_order": [
        "text-block-1",
        "text-block-2",
        "text-block-4",
        "text-block-3"
      ],
      "settings": {
        "container": "container",
        "title": "Get in Touch",
        "description": "<p>How can we help? Our customer service team is here for you!<\/p>",
        "show_name": true,
        "show_phone": false,
        "show_email": true,
        "show_message": true
      }
    }
  },
  "order": [
    "main",
    "maps",
    "contact-form"
  ]
}